deep-learning-in-genomics - RatXcan run on 324 Br Rats
…
Association using Fast Enformer

trait = "bodylen"
h2 = bodylen_h2
h2se = bodylen_h2+bodylen_se
tissues = c("AC", "IL", "LH", "PL", "VO")
pred_expr

# A tibble: 324 × 22,877
   IID        ENSRNOG00000066169 ENSRNOG00000070168 ENSRNOG00000070901
   <chr>                   <dbl>              <dbl>              <dbl>
 1 00077E669E            0.00334            0.00255               1.76
 2 00077E75DE            0.00334            0.00277               1.75
 3 00077E7666            0.00334            0.00255               1.76
 4 00077E76EB            0.00334            0.00255               1.75
 5 00077E7819            0.00334            0.00255               1.76
 6 00077E7879            0.00334            0.00255               1.76
 7 00077E8223            0.00334            0.00255               1.76
 8 00077E82E3            0.00334            0.00255               1.76
 9 00077E82F7            0.00334            0.00260               1.76
10 00077E8653            0.00334            0.00265               1.75
# ℹ 314 more rows
# ℹ 22,873 more variables: ENSRNOG00000018029 <dbl>, ENSRNOG00000031391 <dbl>,
#   ENSRNOG00000068698 <dbl>, ENSRNOG00000064851 <dbl>,
#   ENSRNOG00000063562 <dbl>, ENSRNOG00000050129 <dbl>,
#   ENSRNOG00000032625 <dbl>, ENSRNOG00000029315 <dbl>,
#   ENSRNOG00000016356 <dbl>, ENSRNOG00000028288 <dbl>,
#   ENSRNOG00000015810 <dbl>, ENSRNOG00000017538 <dbl>, …
…
